featurette
…
.panel1-feature-auto[

```r
library(ggcalendar)

*advent_df
```
]
 
.panel2-feature-auto[

```
## # A tibble: 31 × 2
##    todo                 date      
##    <chr>                <date>    
##  1 <NA>                 2023-12-01
##  2 <NA>                 2023-12-02
##  3 <NA>                 2023-12-03
##  4 make calendar        2023-12-04
##  5 make 9 pies          2023-12-05
##  6 circle pack counting 2023-12-06
##  7 pivot w OOP          2023-12-07
##  8 RUGS check           2023-12-08
##  9 smoothfit            2023-12-09
## 10 slice                2023-12-10
## # ℹ 21 more rows
```
…
