featurette
…
.panel2-feature2-auto[

```
## Simple feature collection with 100 features and 4 fields
## Geometry type: MULTIPOLYGON
## Dimension:     XY
## Bounding box:  xmin: -84.32385 ymin: 33.88199 xmax: -75.45698 ymax: 36.58965
## Geodetic CRS:  NAD27
## # A tibble: 100 × 5
##                                                 geometry  xmin  xmax  ymin  ymax
##                                       <MULTIPOLYGON [°]> <dbl> <dbl> <dbl> <dbl>
##  1 (((-81.47276 36.23436, -81.54084 36.27251, -81.56198… -81.7  36.2 -81.2  36.6
##  2 (((-81.23989 36.36536, -81.24069 36.37942, -81.26284… -81.3  36.4 -80.9  36.6
##  3 (((-80.45634 36.24256, -80.47639 36.25473, -80.53688… -81.0  36.2 -80.4  36.6
##  4 (((-76.00897 36.3196, -76.01735 36.33773, -76.03288 … -76.3  36.1 -75.8  36.6
##  5 (((-77.21767 36.24098, -77.23461 36.2146, -77.29861 … -77.9  36.2 -77.1  36.6
##  6 (((-76.74506 36.23392, -76.98069 36.23024, -76.99475… -77.2  36.2 -76.7  36.6
##  7 (((-76.00897 36.3196, -75.95718 36.19377, -75.98134 … -76.6  36.2 -76.0  36.6
##  8 (((-76.56251 36.34057, -76.60424 36.31498, -76.64822… -77.0  36.3 -76.5  36.6
##  9 (((-78.30876 36.26004, -78.28293 36.29188, -78.32125… -78.3  36.2 -77.9  36.6
## 10 (((-80.02567 36.25023, -80.45301 36.25709, -80.43531… -80.5  36.3 -80.0  36.6
## # ℹ 90 more rows
```
…
