#‘Global Human Day’ featurette
…
---

count: false

.panel1-feature-auto[

```r
*taylor_album_songs
```
]
 
.panel2-feature-auto[

```
## # A tibble: 194 × 29
##    album_name   ep    album_release track_number track_name     artist featuring
##    <chr>        <lgl> <date>               <dbl> <chr>          <chr>  <chr>    
##  1 Taylor Swift FALSE 2006-10-24               1 Tim McGraw     Taylo… <NA>     
##  2 Taylor Swift FALSE 2006-10-24               2 Picture To Bu… Taylo… <NA>     
##  3 Taylor Swift FALSE 2006-10-24               3 Teardrops On … Taylo… <NA>     
##  4 Taylor Swift FALSE 2006-10-24               4 A Place In Th… Taylo… <NA>     
##  5 Taylor Swift FALSE 2006-10-24               5 Cold As You    Taylo… <NA>     
##  6 Taylor Swift FALSE 2006-10-24               6 The Outside    Taylo… <NA>     
##  7 Taylor Swift FALSE 2006-10-24               7 Tied Together… Taylo… <NA>     
##  8 Taylor Swift FALSE 2006-10-24               8 Stay Beautiful Taylo… <NA>     
##  9 Taylor Swift FALSE 2006-10-24               9 Should've Sai… Taylo… <NA>     
## 10 Taylor Swift FALSE 2006-10-24              10 Mary's Song (… Taylo… <NA>     
## # ℹ 184 more rows
## # ℹ 22 more variables: bonus_track <lgl>, promotional_release <date>,
## #   single_release <date>, track_release <date>, danceability <dbl>,
## #   energy <dbl>, key <dbl>, loudness <dbl>, mode <dbl>, speechiness <dbl>,
## #   acousticness <dbl>, instrumentalness <dbl>, liveness <dbl>, valence <dbl>,
## #   tempo <dbl>, time_signature <dbl>, duration_ms <dbl>, explicit <lgl>,
## #   key_name <chr>, mode_name <chr>, key_mode <chr>, lyrics <lgl>
```
…
---
count: false

.panel1-feature-auto[

```r
taylor_album_songs %>%
* mutate(key_name = ifelse(mode, key_name, tolower(key_name)))
```
]
 
.panel2-feature-auto[

```
## # A tibble: 194 × 29
##    album_name   ep    album_release track_number track_name     artist featuring
##    <chr>        <lgl> <date>               <dbl> <chr>          <chr>  <chr>    
##  1 Taylor Swift FALSE 2006-10-24               1 Tim McGraw     Taylo… <NA>     
##  2 Taylor Swift FALSE 2006-10-24               2 Picture To Bu… Taylo… <NA>     
##  3 Taylor Swift FALSE 2006-10-24               3 Teardrops On … Taylo… <NA>     
##  4 Taylor Swift FALSE 2006-10-24               4 A Place In Th… Taylo… <NA>     
##  5 Taylor Swift FALSE 2006-10-24               5 Cold As You    Taylo… <NA>     
##  6 Taylor Swift FALSE 2006-10-24               6 The Outside    Taylo… <NA>     
##  7 Taylor Swift FALSE 2006-10-24               7 Tied Together… Taylo… <NA>     
##  8 Taylor Swift FALSE 2006-10-24               8 Stay Beautiful Taylo… <NA>     
##  9 Taylor Swift FALSE 2006-10-24               9 Should've Sai… Taylo… <NA>     
## 10 Taylor Swift FALSE 2006-10-24              10 Mary's Song (… Taylo… <NA>     
## # ℹ 184 more rows
## # ℹ 22 more variables: bonus_track <lgl>, promotional_release <date>,
## #   single_release <date>, track_release <date>, danceability <dbl>,
## #   energy <dbl>, key <dbl>, loudness <dbl>, mode <dbl>, speechiness <dbl>,
## #   acousticness <dbl>, instrumentalness <dbl>, liveness <dbl>, valence <dbl>,
## #   tempo <dbl>, time_signature <dbl>, duration_ms <dbl>, explicit <lgl>,
## #   key_name <chr>, mode_name <chr>, key_mode <chr>, lyrics <lgl>
```
…
.panel1-feature-auto[

```r
taylor_album_songs %>%
  mutate(key_name = ifelse(mode, key_name, tolower(key_name))) %>%
* filter(!is.na(key_mode))
```
]
 
.panel2-feature-auto[

```
## # A tibble: 191 × 29
##    album_name   ep    album_release track_number track_name     artist featuring
##    <chr>        <lgl> <date>               <dbl> <chr>          <chr>  <chr>    
##  1 Taylor Swift FALSE 2006-10-24               1 Tim McGraw     Taylo… <NA>     
##  2 Taylor Swift FALSE 2006-10-24               2 Picture To Bu… Taylo… <NA>     
##  3 Taylor Swift FALSE 2006-10-24               3 Teardrops On … Taylo… <NA>     
##  4 Taylor Swift FALSE 2006-10-24               4 A Place In Th… Taylo… <NA>     
##  5 Taylor Swift FALSE 2006-10-24               5 Cold As You    Taylo… <NA>     
##  6 Taylor Swift FALSE 2006-10-24               6 The Outside    Taylo… <NA>     
##  7 Taylor Swift FALSE 2006-10-24               7 Tied Together… Taylo… <NA>     
##  8 Taylor Swift FALSE 2006-10-24               8 Stay Beautiful Taylo… <NA>     
##  9 Taylor Swift FALSE 2006-10-24               9 Should've Sai… Taylo… <NA>     
## 10 Taylor Swift FALSE 2006-10-24              10 Mary's Song (… Taylo… <NA>     
## # ℹ 181 more rows
## # ℹ 22 more variables: bonus_track <lgl>, promotional_release <date>,
## #   single_release <date>, track_release <date>, danceability <dbl>,
## #   energy <dbl>, key <dbl>, loudness <dbl>, mode <dbl>, speechiness <dbl>,
## #   acousticness <dbl>, instrumentalness <dbl>, liveness <dbl>, valence <dbl>,
## #   tempo <dbl>, time_signature <dbl>, duration_ms <dbl>, explicit <lgl>,
## #   key_name <chr>, mode_name <chr>, key_mode <chr>, lyrics <lgl>
```
…
