featurette
…
---

count: false

.panel1-feature-auto[

```r
*rladies_chapters_raw
```
]
 
.panel2-feature-auto[

```
## # A tibble: 4,268 × 6
##           id chapter   title                           date       location  year
##        <dbl> <chr>     <chr>                           <date>     <chr>    <dbl>
##  1 296275584 St Louis  "Save the date! Introduction t… 2023-11-30 online    2023
##  2 296277517 Coventry  "An basic introduction: Python… 2023-11-30 online    2023
##  3 295898711 Baltimore "Holiday graphics and animatio… 2023-11-28 inperson  2023
##  4 296346610 Philly    "TidyTuesday with R-Ladies Phi… 2023-11-14 online    2023
##  5 296275461 St Louis  "Save the date! Introduction t… 2023-11-08 online    2023
##  6 296424871 Kathmandu "4 days workshop"               2023-11-01 inperson  2023
##  7 296239571 Taipei    "旅遊服務銜接 AIGC 的各種坑"    2023-10-30 inperson  2023
##  8 296559481 Montreal  "RLadies October Meetup - \"R-… 2023-10-30 inperson  2023
##  9 296677321 Abuja     "R-Ladies Abuja and Abuja R us… 2023-10-28 inperson  2023
## 10 296720878 Sao Paulo "Meetup R-Ladies São Paulo - I… 2023-10-28 inperson  2023
## # ℹ 4,258 more rows
```
…
