featurette
…
.panel1-feature-auto[

```r
library(tidyverse)
library(ggwedge)
*rladies_chapters
```
]
 
.panel2-feature-auto[

```
## # A tibble: 4,268 × 6
##           id chapter           title                   date       location  year
##        <dbl> <chr>             <chr>                   <date>     <chr>    <dbl>
##  1 296275584 rladies-st-louis  "Save the date! Introd… 2023-11-30 online    2023
##  2 296277517 rladies-coventry  "An basic introduction… 2023-11-30 online    2023
##  3 295898711 rladies-baltimore "Holiday graphics and … 2023-11-28 inperson  2023
##  4 296346610 rladies-philly    "TidyTuesday with R-La… 2023-11-14 online    2023
##  5 296275461 rladies-st-louis  "Save the date! Introd… 2023-11-08 online    2023
##  6 296424871 rladies-kathmandu "4 days workshop"       2023-11-01 inperson  2023
##  7 296239571 rladies-taipei    "旅遊服務銜接 AIGC 的…  2023-10-30 inperson  2023
##  8 296559481 rladies-montreal  "RLadies October Meetu… 2023-10-30 inperson  2023
##  9 296677321 rladies-abuja     "R-Ladies Abuja and Ab… 2023-10-28 inperson  2023
## 10 296720878 rladies-sao-paulo "Meetup R-Ladies São P… 2023-10-28 inperson  2023
## # ℹ 4,258 more rows
```
…
.panel1-feature-auto[

```r
library(tidyverse)
library(ggwedge)
rladies_chapters  %>%
* filter(year == 2020)
```
]
 
.panel2-feature-auto[

```
## # A tibble: 920 × 6
##           id chapter           title                   date       location  year
##        <dbl> <chr>             <chr>                   <date>     <chr>    <dbl>
##  1 250503965 rladies-guayaquil ¡Primer meet-up R-Ladi… 2020-12-30 inperson  2020
##  2 275174364 rladies-dc        Happy hour and year in… 2020-12-29 online    2020
##  3 275260700 rladies-colombo   R Markdown: ON YOUR MA… 2020-12-28 online    2020
##  4 274731745 rladies-dc        Movie night: TBD        2020-12-26 online    2020
##  5 275171538 rladies-rotterdam Microbenchmarking: mea… 2020-12-22 online    2020
##  6 275209539 rladies-jujuy     ¡Fin de año y primer m… 2020-12-21 online    2020
##  7 274731734 rladies-dc        Movie night: TBD        2020-12-19 online    2020
##  8 274961085 rladies-amsterdam Automatic & Explainabl… 2020-12-17 online    2020
##  9 275130932 rladies-montreal  R-Ladies Meeting: TBC   2020-12-17 inperson  2020
## 10 274927239 rladies-montreal  R-Ladies Meeting: TBC   2020-12-17 inperson  2020
## # ℹ 910 more rows
```
…
